Вход в гитлаб:

Логин:gabdrafikov.salavat@yandex.ru
Пароль: kaktusKesha05159

==========================================================

Первые команды:

mkdir Gid
cd C:/Users/DNS/Desktop/KT
git init
git add .
git commit
git config --global user.email "gabdrafikov.salavat@yandex.ru"
git config --global user.name "Joseph_Stalin_005"
git add .
git status
git add .
git status

==============================
Проверка локального репозитория:

cd C:/Users/DNS/Desktop/KT
git status

==============================
Связка локального и удаленного репозиториев:

git remote add origin https://gitlab.com/Joseph_Stalin_055/KT_lab

======================================================================

Проверка связки локального и удаленного репозиториев:
git remote -v

======================================================================
Отправка данных на удаленный репозиторий:

git remote add origin https://gitlab.com/Joseph_Stalin_055/KT_lab
git add .
git commit -m "KT_lab"
git push origin master

=======================================================================


